{
	"_id" : "SS0003",
	"name" : "Pencil",
	"discription" : "Mongol, smallest size",
	"price" : 15,
	"stocks" : 99,
	"isActive" : true
}

{
	"_id" : "EL0043",
	"name" : "Purefoods charger",
	"discription" : "220V/0.2A, White",
	"price" : 499,
	"stocks" : 43,
	"isActive" : true
}

{
	"_id" : "AP0074",
	"name" : "Epson Television",
	"discription" : "72 inches, Black",
	"price" : 59999,
	"isActive" : true,
	"stocks" : 12
}