{
	"_id" : "507f1f77bcf86cd799439011",
	"firstName" : "John",
	"lastName" : "Smith",
	"email" : "johnsmith@mail.com",
	"password" : "johnhandsome",
	"isAdmin" : false,
	"mobileNumber" : "09123456789",
	"enrollments" : ["507f191e810c19729de860ea", "601ccbe89bcd482ee8fa2c99"],
	"datetimeRegistered" : "2020-03-15T15:00:00.00Z"
}

{
	"_id" : "507f1f77bcf86cd799439012",
	"firstName" : "Jane",
	"lastName" : "Doe",
	"email" : "janedoe@zuitt.com",
	"password" : "janepretty",
	"isAdmin" : true,
	"mobileNumber" : "09123456789",
	"enrollments" : [],
	"datetimeRegistered" : "2020-03-15T15:00:00.00Z"
}


{
	"_id" : "507f1f77bcf86cd799439013",
	"firstName" : "Romhert",
	"lastName" : "Alteza",
	"email" : "@zuitt.com",
	"password" : "romhertromhertaltezapogi",
	"isAdmin" : true,
	"mobileNumber" : "09123456789",
	"enrollments" : [],
	"datetimeRegistered" : "2020-03-15T15:00:00.00Z"
}